To, Location
u0, PIN_N25
u1, PIN_N26
u2, PIN_P25
v0, PIN_AE14
v1, PIN_AF14
v2, PIN_AD13
w0, PIN_AC13
w1, PIN_C13
w2, PIN_B13
x0, PIN_A13
x1, PIN_N1
x2, PIN_P1
y0, PIN_P2
y1, PIN_T7
y2, PIN_U3
s0, PIN_U4
s1, PIN_V1
s2, PIN_V2
m0, PIN_AE22
m1, PIN_AF22
m2, PIN_W19